{
  "addons": {
    "browseintab@mozdev.org": {
      "updates": [
        { "version": "1.4",
          "update_link": "https://bitbucket.org/alta8888/browseintab/downloads/BrowseInTab-1.4.xpi",
          "update_hash": "sha256:db318b1976ea5395832aacd5aaf39d34a587729b8c9a2f2a9a06ac09b38d36d4",
          "update_info_url": "https://bitbucket.org/alta8888/browseintab/downloads/updateInfo.html"
        }
      ]
    }
  }
}
