{
  "extensionName": {
    "message": "BrowseInTab",
    "description": "Name of the extension."
  },
  "extensionDescription": {
    "message": "Open and browse any link in a Thunderbird content tab. Links are followed within the tab and back/forward navigation is supported.",
    "description": "Description of the extension."
  },
  "extensionBye": {
    "message": "BrowseInTab - goodbye",
    "description": "Message on disable/remove completed."
  },

  "openLinkInContentTabLabel": {
    "message": "Open Link in New Tab",
    "description": "Context menu."
  },
  "openLinkInContentTabAccesskey": {
    "message": "T",
    "description": "Context menu."
  },


  "maxContentTabs": {
    "message": "Maximum number of content tabs: ",
    "description": "Options."
  },
  "tabsLoadInBackground": {
    "message": "Open a message or link in a background tab (new tab is not focused)",
    "description": "Options."
  },
  "tabsLoadInBackgroundExtra": {
    "message": "* Shift-select the context menuitem to reverse this setting.",
    "description": "Options."
  },

  "linkClickLoadsInTab": {
    "message": "Link click opens in a new tab instead of an external browser",
    "description": "Options."
  },
  "linkClickLoadsInTabExtra": {
    "message": "* Ctrl-click the link to reverse this setting.",
    "description": "Options."
  },
  "linkClickLoadsInBackgroundTab": {
    "message": "Link click opens in a new background tab",
    "description": "Options."
  },
  "linkClickLoadsInBackgroundTabExtra": {
    "message": "* Shift-click the link to reverse this setting.",
    "description": "Options."
  },
  "forceLinkClickLoadsInCurrentTab": {
    "message": "Force link click or open in the current content tab to load in the same tab",
    "description": "Options."
  },
  "forceLinkClickLoadsInCurrentTabExtra": {
    "message": "* Ctrl-click the link to reverse this setting.",
    "description": "Options."
  },
  "useFirefoxCompatUserAgent": {
    "message": "Set the user agent to Firefox Compatibility when opening links only",
    "description": "Options."
  },
  "useFirefoxCompatUserAgentExtra": {
    "message": "* Check pref 'general.useragent.compatMode.firefox' for the default global setting.",
    "description": "Options."
  },
  "systemContentTabOrLinkNote": {
    "message": "Note: Links in system content tabs such as Preferences/Options or Add-ons Manager or links in other chrome locations are currently not affected by these preferences and will open in a tab or external browser as defined by internal code.",
    "description": "Options."
  }
}
